Electricity generation by countries
…
The data types are also correct.

Let’s group data by country and summarize the statistics for exploration.

energy_summary <- energy_generation_by_countries |>
  group_by(Entity) |>
  summarise(
    total_generation_TWh = sum(`Electricity generation - TWh`, na.rm = TRUE),
    n_years = n()
  ) |>
  arrange(desc(total_generation_TWh))

energy_summary

# A tibble: 252 × 3
   Entity                        total_generation_TWh n_years
   <chr>                                        <dbl>   <int>
 1 World                                      748571.      40
 2 G20 (Ember)                                473611.      25
 3 High-income countries                      412471.      39
 4 OECD (EI)                                  382262.      39
 5 Non-OECD (EI)                              342776.      39
 6 Asia                                       295142.      39
 7 OECD (Ember)                               264653.      25
 8 Asia Pacific (EI)                          262643.      39
 9 Upper-middle-income countries              235229.      39
10 Asia (Ember)                               234806.      25
# ℹ 242 more rows
…
growth_rates

# A tibble: 252 × 6
   Entity       total_generation_TWh avg_annual_growth min_year max_year n_years
   <chr>                       <dbl>             <dbl>    <dbl>    <dbl>   <dbl>
 1 Palestine                   11.1              0.279     2000     2022      22
 2 Benin                        7.68             0.245     2000     2023      23
 3 Cambodia                   111.               0.201     2000     2024      24
 4 Equatorial …                16.8              0.178     2000     2023      23
 5 Laos                       426.               0.156     2000     2023      23
 6 Congo                       45.0              0.147     2000     2023      23
 7 East Timor                   5.84             0.135     2003     2023      20
 8 Angola                     193.               0.119     2000     2023      23
 9 Ethiopia                   197.               0.113     2000     2023      23
10 Vietnam                   3593.               0.112     1985     2024      39
# ℹ 242 more rows
…
energy_summary

# A tibble: 216 × 6
   Entity       total_generation_TWh avg_annual_growth min_year max_year n_years
   <chr>                       <dbl>             <dbl>    <dbl>    <dbl>   <dbl>
 1 United Stat…              151136.           0.0132      1985     2024      39
 2 China                     139419.           0.0861      1985     2024      39
 3 Japan                      40711.           0.0113      1985     2024      39
 4 Russia                     40427.           0.00638     1985     2024      39
 5 India                      34261.           0.0639      1985     2024      39
 6 Canada                     23679.           0.00836     1985     2024      39
 7 Germany                    23045.          -0.00176     1985     2024      39
 8 France                     20510.           0.0134      1985     2024      39
 9 Brazil                     16913.           0.0355      1985     2024      39
10 South Korea                14624.           0.0618      1985     2024      39
# ℹ 206 more rows

Renaming columns

Let lower the names of the columns and remove all the spaces

energy_generation_by_countries <- energy_generation_by_countries |>
  rename_with(~ str_to_lower(.)) |>
  rename_with(~ str_replace_all(., "[\\s\\-]+", "_")) |>
  rename_with(~ str_replace_all(., "[^a-z0-9_]", ""))

energy_generation_by_countries

# A tibble: 6,388 × 4
   entity      code   year electricity_generation_twh
   <chr>       <chr> <dbl>                      <dbl>
 1 Afghanistan AFG    2000                       0.48
 2 Afghanistan AFG    2001                       0.69
 3 Afghanistan AFG    2002                       0.71
 4 Afghanistan AFG    2003                       0.91
 5 Afghanistan AFG    2004                       0.79
 6 Afghanistan AFG    2005                       0.82
 7 Afghanistan AFG    2006                       0.9 
 8 Afghanistan AFG    2007                       1.01
 9 Afghanistan AFG    2008                       0.78
10 Afghanistan AFG    2009                       0.89
# ℹ 6,378 more rows
…
